<svg width="23" height="23" viewBox="0 0 23 23" fill="none" xmlns="http://www.w3.org/2000/svg">
<mask id="mask0_139_16" style="mask-type:alpha" maskUnits="userSpaceOnUse" x="0" y="0" width="23" height="23">
<circle cx="11.5" cy="11.5" r="11.5" fill="#D9D9D9"/>
</mask>
<g mask="url(#mask0_139_16)">
<rect x="-12" width="23" height="23" fill="#D9D9D9"/>
</g>
</svg>
